[
  {
    "_index": "packets-2022-12-18",
    "_type": "doc",
    "_score": null,
    "_source": {
      "layers": {
        "frame": {
          "frame.section_number": "1",
          "frame.interface_id": "0",
          "frame.interface_id_tree": {
            "frame.interface_name": "any"
          },
          "frame.encap_type": "25",
          "frame.time": "Dec 18, 2022 18:39:46.604932941 CET",
          "frame.offset_shift": "0.000000000",
          "frame.time_epoch": "1671385186.604932941",
          "frame.time_delta": "0.000256277",
          "frame.time_delta_displayed": "0.000000000",
          "frame.time_relative": "5.247059332",
          "frame.number": "63",
          "frame.len": "72",
          "frame.cap_len": "72",
          "frame.marked": "0",
          "frame.ignored": "0",
          "frame.protocols": "sll:ethertype:ip:udp:dns",
          "frame.coloring_rule.name": "UDP",
          "frame.coloring_rule.string": "udp"
        },
        "sll": {
          "sll.pkttype": "4",
          "sll.hatype": "1",
          "sll.halen": "6",
          "sll.src.eth": "cc:f9:e4:9d:f4:81",
          "sll.unused": "00:00",
          "sll.etype": "0x0800"
        },
        "ip": {
          "ip.version": "4",
          "ip.hdr_len": "20",
          "ip.dsfield": "0x00",
          "ip.dsfield_tree": {
            "ip.dsfield.dscp": "0",
            "ip.dsfield.ecn": "0"
          },
          "ip.len": "56",
          "ip.id": "0xddac",
          "ip.flags": "0x00",
          "ip.flags_tree": {
            "ip.flags.rb": "0",
            "ip.flags.df": "0",
            "ip.flags.mf": "0"
          },
          "ip.frag_offset": "0",
          "ip.ttl": "64",
          "ip.proto": "17",
          "ip.checksum": "0xfa65",
          "ip.checksum.status": "2",
          "ip.src": "10.71.71.20",
          "ip.addr": "10.71.71.20",
          "ip.src_host": "10.71.71.20",
          "ip.host": "10.71.71.20",
          "ip.dst": "10.71.71.1",
          "ip.addr": "10.71.71.1",
          "ip.dst_host": "10.71.71.1",
          "ip.host": "10.71.71.1"
        },
        "udp": {
          "udp.srcport": "39806",
          "udp.dstport": "53",
          "udp.port": "39806",
          "udp.port": "53",
          "udp.length": "36",
          "udp.checksum": "0xa2d8",
          "udp.checksum.status": "2",
          "udp.stream": "1",
          "Timestamps": {
            "udp.time_relative": "0.000000000",
            "udp.time_delta": "0.000000000"
          },
          "udp.payload": "a4:68:01:00:00:01:00:00:00:00:00:00:06:67:6f:6f:67:6c:65:03:63:6f:6d:00:00:01:00:01"
        },
        "dns": {
          "dns.id": "0xa468",
          "dns.flags": "0x0100",
          "dns.flags_tree": {
            "dns.flags.response": "0",
            "dns.flags.opcode": "0",
            "dns.flags.truncated": "0",
            "dns.flags.recdesired": "1",
            "dns.flags.z": "0",
            "dns.flags.checkdisable": "0"
          },
          "dns.count.queries": "1",
          "dns.count.answers": "0",
          "dns.count.auth_rr": "0",
          "dns.count.add_rr": "0",
          "Queries": {
            "google.com: type A, class IN": {
              "dns.qry.name": "google.com",
              "dns.qry.name.len": "10",
              "dns.count.labels": "2",
              "dns.qry.type": "1",
              "dns.qry.class": "0x0001"
            }
          },
          "dns.response_in": "64"
        }
      }
    }
  }
]
