[
    {
        "name": "telematik.",
        "ttl": 20,
        "class": "IN",
        "type": "NS",
        "data": "127.0.0.20"
    },
    {
        "name": "fuberlin.",
        "ttl": 20,
        "class": "IN",
        "type": "NS",
        "data": "127.0.0.50"
    }
]
